...................
----------------------------------------------------------------------
Ran 19 tests in 0.134s

OK
Name             Stmts   Miss Branch BrPart  Cover   Missing
------------------------------------------------------------
Collatz.py          54      2     24      0    97%   230-231
TestCollatz.py      83      0      0      0   100%
------------------------------------------------------------
TOTAL              137      2     24      0    99%
